EESchema Schematic File Version 4
LIBS:anode-psu-cache
EELAYER 30 0
EELAYER END
$Descr A4 11693 8268
encoding utf-8
Sheet 1 1
Title "Variable Anode PSU"
Date "2019-11-05"
Rev ""
Comp "TOGOTO"
Comment1 ""
Comment2 ""
Comment3 ""
Comment4 ""
$EndDescr
$Comp
L Connector:Conn_01x02_Male J1
U 1 1 5DB9DF2B
P 1300 2400
F 0 "J1" H 1300 2450 50  0000 C CNN
F 1 "AC_IN" H 1150 2350 50  0000 C CNN
F 2 "TerminalBlock:TerminalBlock_Altech_AK300-2_P5.00mm" H 1300 2400 50  0001 C CNN
F 3 "~" H 1300 2400 50  0001 C CNN
	1    1300 2400
	1    0    0    1   
$EndComp
$Comp
L Device:Fuse_Small F1
U 1 1 5DB9EA1E
P 1650 2300
F 0 "F1" H 1650 2485 50  0000 C CNN
F 1 "0.5A" H 1650 2394 50  0000 C CNN
F 2 "Fuse:Fuseholder_TR5_Littelfuse_No560_No460" H 1650 2300 50  0001 C CNN
F 3 "~" H 1650 2300 50  0001 C CNN
	1    1650 2300
	1    0    0    -1  
$EndComp
Wire Wire Line
	1500 2400 1800 2400
Wire Wire Line
	2100 2100 2100 1100
$Comp
L Device:C C2
U 1 1 5DBA2B8B
P 2950 2400
F 0 "C2" H 2950 2500 50  0000 L CNN
F 1 "0u47F/400V" V 3000 1850 50  0000 L CNN
F 2 "Capacitor_THT:C_Rect_L26.5mm_W6.0mm_P22.50mm_MKS4" H 2988 2250 50  0001 C CNN
F 3 "~" H 2950 2400 50  0001 C CNN
	1    2950 2400
	1    0    0    -1  
$EndComp
Wire Wire Line
	2950 1100 2950 2250
Wire Wire Line
	2100 1100 2700 1100
Wire Wire Line
	2700 2250 2700 1100
Connection ~ 2700 1100
Wire Wire Line
	2700 1100 2950 1100
$Comp
L Device:CP C1
U 1 1 5DBA27C6
P 2700 2400
F 0 "C1" H 2700 2500 50  0000 L CNN
F 1 "47uF/400V" V 2750 1900 50  0000 L CNN
F 2 "Capacitor_THT:CP_Radial_D16.0mm_P7.50mm" H 2738 2250 50  0001 C CNN
F 3 "~" H 2700 2400 50  0001 C CNN
	1    2700 2400
	1    0    0    -1  
$EndComp
$Comp
L Transistor_FET:IRF740 Q4
U 1 1 5DBC0C27
P 4700 1200
F 0 "Q4" V 4900 1330 50  0000 C CNN
F 1 "IRF740" V 4850 1600 50  0000 C CNN
F 2 "Package_TO_SOT_THT:TO-247-3_Vertical" H 4950 1125 50  0001 L CIN
F 3 "http://www.vishay.com/docs/91054/91054.pdf" H 4700 1200 50  0001 L CNN
	1    4700 1200
	0    -1   -1   0   
$EndComp
$Comp
L Diode:1N4007 D4
U 1 1 5DBC4FB1
P 4700 900
F 0 "D4" H 4500 950 50  0000 C CNN
F 1 "1N4007" H 4700 1000 50  0000 C CNN
F 2 "Diode_THT:D_DO-41_SOD81_P10.16mm_Horizontal" H 4700 725 50  0001 C CNN
F 3 "http://www.vishay.com/docs/88503/1n4001.pdf" H 4700 900 50  0001 C CNN
	1    4700 900 
	1    0    0    -1  
$EndComp
Connection ~ 4450 1100
Wire Wire Line
	4450 1100 4500 1100
Wire Wire Line
	4950 1100 4900 1100
Connection ~ 4950 1100
$Comp
L Device:R R6
U 1 1 5DBCCF5E
P 5200 1350
F 0 "R6" V 5200 1300 50  0000 L CNN
F 1 "100" V 5300 1275 50  0000 L CNN
F 2 "Resistor_THT:R_Axial_DIN0207_L6.3mm_D2.5mm_P10.16mm_Horizontal" V 5130 1350 50  0001 C CNN
F 3 "~" H 5200 1350 50  0001 C CNN
	1    5200 1350
	1    0    0    -1  
$EndComp
$Comp
L Device:D_Zener D5
U 1 1 5DBCE43E
P 4950 1350
F 0 "D5" V 5050 1350 50  0000 R CNN
F 1 "15v" H 5000 1250 50  0000 R CNN
F 2 "Diode_THT:D_DO-35_SOD27_P7.62mm_Horizontal" H 4950 1350 50  0001 C CNN
F 3 "~" H 4950 1350 50  0001 C CNN
	1    4950 1350
	0    -1   -1   0   
$EndComp
Wire Wire Line
	4950 1500 4950 1550
Wire Wire Line
	5200 1500 5200 1600
Wire Wire Line
	4950 1100 4950 1200
Wire Wire Line
	4950 1550 4700 1550
Wire Wire Line
	4700 1550 4700 1400
$Comp
L Device:R R10
U 1 1 5DBD72D9
P 5600 1100
F 0 "R10" V 5600 1100 50  0000 C CNN
F 1 "2,7Ohm/0.6W" V 5500 1100 50  0000 C CNN
F 2 "Resistor_THT:R_Axial_DIN0207_L6.3mm_D2.5mm_P10.16mm_Horizontal" V 5530 1100 50  0001 C CNN
F 3 "~" H 5600 1100 50  0001 C CNN
	1    5600 1100
	0    1    1    0   
$EndComp
$Comp
L Device:R R7
U 1 1 5DBD7933
P 5600 900
F 0 "R7" V 5600 900 50  0000 C CNN
F 1 "2,7Ohm/0.6W" V 5500 900 50  0000 C CNN
F 2 "Resistor_THT:R_Axial_DIN0207_L6.3mm_D2.5mm_P10.16mm_Horizontal" V 5530 900 50  0001 C CNN
F 3 "~" H 5600 900 50  0001 C CNN
	1    5600 900 
	0    1    1    0   
$EndComp
Wire Wire Line
	5450 900  5300 900 
Wire Wire Line
	5300 900  5300 1100
Wire Wire Line
	5300 1100 5450 1100
Wire Wire Line
	5750 900  5900 900 
Wire Wire Line
	5900 900  5900 1100
Wire Wire Line
	5900 1100 5750 1100
Wire Wire Line
	5900 1100 5900 1900
Connection ~ 5900 1100
Wire Wire Line
	4450 900  4550 900 
Wire Wire Line
	4450 900  4450 1100
Wire Wire Line
	4950 900  4850 900 
Wire Wire Line
	4950 900  4950 1100
Connection ~ 4700 1550
Connection ~ 4550 1550
Wire Wire Line
	4550 1550 4700 1550
Wire Wire Line
	4350 1550 4550 1550
Connection ~ 4350 1550
Connection ~ 4150 1550
Wire Wire Line
	4150 1550 4350 1550
Wire Wire Line
	3900 1550 4150 1550
Connection ~ 4550 2050
Wire Wire Line
	4550 2150 4550 2050
Wire Wire Line
	4350 2050 4550 2050
Connection ~ 4350 2050
Wire Wire Line
	4350 1950 4350 2050
Wire Wire Line
	4150 2050 4350 2050
Connection ~ 4150 2050
Wire Wire Line
	4150 1950 4150 2050
Wire Wire Line
	4550 2050 4550 1950
Wire Wire Line
	3900 2050 4150 2050
Wire Wire Line
	3900 1950 3900 2050
Wire Wire Line
	4550 1650 4550 1550
Wire Wire Line
	4350 1650 4350 1550
Wire Wire Line
	4150 1650 4150 1550
Wire Wire Line
	3900 1650 3900 1550
$Comp
L Device:C C6
U 1 1 5DBFC715
P 3900 1800
F 0 "C6" H 3850 2100 50  0000 L CNN
F 1 "820nF/50V" V 4050 1600 50  0000 L CNN
F 2 "Capacitor_THT:C_Rect_L16.5mm_W7.0mm_P15.00mm_MKT" H 3938 1650 50  0001 C CNN
F 3 "~" H 3900 1800 50  0001 C CNN
	1    3900 1800
	1    0    0    -1  
$EndComp
$Comp
L Device:R R5
U 1 1 5DBE8DD9
P 4550 1800
F 0 "R5" H 4500 2100 50  0000 L CNN
F 1 "100k" V 4650 1700 50  0000 L CNN
F 2 "Resistor_THT:R_Axial_DIN0207_L6.3mm_D2.5mm_P10.16mm_Horizontal" V 4480 1800 50  0001 C CNN
F 3 "~" H 4550 1800 50  0001 C CNN
	1    4550 1800
	1    0    0    -1  
$EndComp
$Comp
L Device:LED D3
U 1 1 5DBE5E30
P 4350 1800
F 0 "D3" V 4050 1850 50  0000 R CNN
F 1 "RED" H 4450 1700 50  0000 R CNN
F 2 "LED_THT:LED_D5.0mm" H 4350 1800 50  0001 C CNN
F 3 "~" H 4350 1800 50  0001 C CNN
	1    4350 1800
	0    -1   1    0   
$EndComp
$Comp
L Diode:1N4148 D2
U 1 1 5DBE512F
P 4150 1800
F 0 "D2" V 4450 1750 50  0000 L CNN
F 1 "1N4148" H 4000 1700 50  0000 L CNN
F 2 "Diode_THT:D_DO-35_SOD27_P7.62mm_Horizontal" H 4150 1625 50  0001 C CNN
F 3 "https://assets.nexperia.com/documents/data-sheet/1N4148_1N4448.pdf" H 4150 1800 50  0001 C CNN
	1    4150 1800
	0    -1   -1   0   
$EndComp
$Comp
L Device:Q_NPN_BCE Q2
U 1 1 5DC374CB
P 4650 2950
F 0 "Q2" H 4841 2996 50  0000 L CNN
F 1 "2SC3675" H 4841 2905 50  0000 L CNN
F 2 "Package_TO_SOT_THT:TO-220-3_Vertical" H 4850 3050 50  0001 C CNN
F 3 "~" H 4650 2950 50  0001 C CNN
	1    4650 2950
	-1   0    0    -1  
$EndComp
$Comp
L Device:C C7
U 1 1 5DC3BBEE
P 4800 2600
F 0 "C7" V 4750 2650 50  0000 L CNN
F 1 "220pF/1kV" V 4650 2450 50  0000 L CNN
F 2 "Capacitor_THT:C_Rect_L7.2mm_W4.5mm_P5.00mm_FKS2_FKP2_MKS2_MKP2" H 4838 2450 50  0001 C CNN
F 3 "~" H 4800 2600 50  0001 C CNN
	1    4800 2600
	0    1    1    0   
$EndComp
Wire Wire Line
	5000 2950 4850 2950
$Comp
L Diode:1N4148 D6
U 1 1 5DC3FF53
P 4800 3250
F 0 "D6" H 4800 3050 50  0000 C CNN
F 1 "1N4148" H 4800 3150 50  0000 C CNN
F 2 "Diode_THT:D_DO-35_SOD27_P7.62mm_Horizontal" H 4800 3075 50  0001 C CNN
F 3 "https://assets.nexperia.com/documents/data-sheet/1N4148_1N4448.pdf" H 4800 3250 50  0001 C CNN
	1    4800 3250
	-1   0    0    1   
$EndComp
Wire Wire Line
	4550 3150 4550 3250
Wire Wire Line
	4550 3250 4650 3250
Wire Wire Line
	5000 3250 4950 3250
Wire Wire Line
	5000 2950 5000 3250
Wire Wire Line
	4550 2600 4650 2600
Connection ~ 4550 2600
Wire Wire Line
	4550 2600 4550 2750
Wire Wire Line
	5000 2950 5000 2600
Wire Wire Line
	5000 2600 4950 2600
Connection ~ 5000 2950
$Comp
L Device:D_Zener U2
U 1 1 5DC6934A
P 4550 3550
F 0 "U2" V 4350 3550 50  0000 L CNN
F 1 "UL1550" H 4400 3650 50  0000 L CNN
F 2 "Package_TO_SOT_THT:TO-92-2" H 4550 3550 50  0001 C CNN
F 3 "~" H 4550 3550 50  0001 C CNN
	1    4550 3550
	0    1    1    0   
$EndComp
Wire Wire Line
	4550 3250 4550 3400
Connection ~ 4550 3250
$Comp
L Device:C C3
U 1 1 5DC6C9C2
P 4350 3550
F 0 "C3" H 4350 3750 50  0000 L CNN
F 1 "820nF/50v" V 4200 3400 50  0000 L CNN
F 2 "Capacitor_THT:C_Rect_L16.5mm_W7.0mm_P15.00mm_MKT" H 4388 3400 50  0001 C CNN
F 3 "~" H 4350 3550 50  0001 C CNN
	1    4350 3550
	1    0    0    -1  
$EndComp
Wire Wire Line
	4350 3250 4350 3400
Wire Wire Line
	4350 3700 4350 3850
Wire Wire Line
	4350 3850 4550 3850
Wire Wire Line
	4550 3850 4550 3700
Connection ~ 4550 3850
Connection ~ 4350 3850
Wire Wire Line
	2950 1100 3200 1100
Connection ~ 2950 1100
$Comp
L Device:C C5
U 1 1 5DC853F4
P 6500 2400
F 0 "C5" H 6500 2500 50  0000 L CNN
F 1 "0u47F/400V" V 6550 1850 50  0000 L CNN
F 2 "Capacitor_THT:C_Rect_L26.5mm_W6.0mm_P22.50mm_MKS4" H 6538 2250 50  0001 C CNN
F 3 "~" H 6500 2400 50  0001 C CNN
	1    6500 2400
	1    0    0    -1  
$EndComp
Wire Wire Line
	6500 1100 6500 2250
Wire Wire Line
	6250 2250 6250 1100
$Comp
L Device:CP C4
U 1 1 5DC85402
P 6250 2400
F 0 "C4" H 6250 2500 50  0000 L CNN
F 1 "10uF/400V" V 6300 1900 50  0000 L CNN
F 2 "Capacitor_THT:CP_Radial_D10.0mm_P5.00mm" H 6288 2250 50  0001 C CNN
F 3 "~" H 6250 2400 50  0001 C CNN
	1    6250 2400
	1    0    0    -1  
$EndComp
Wire Wire Line
	6250 1100 6500 1100
Connection ~ 6250 1100
Wire Wire Line
	6250 2550 6250 3850
Wire Wire Line
	6500 3850 6250 3850
Wire Wire Line
	6500 2550 6500 3850
Connection ~ 6250 3850
Connection ~ 6500 1100
Connection ~ 6500 3850
Wire Wire Line
	2100 2700 2100 3850
Wire Wire Line
	2100 3850 2700 3850
Wire Wire Line
	6250 3850 5900 3850
Wire Wire Line
	5900 2450 5900 2350
Wire Wire Line
	5900 2850 5900 2750
$Comp
L Device:R_POT RV1
U 1 1 5DC5F09D
P 5900 2600
F 0 "RV1" H 5830 2554 50  0000 R CNN
F 1 "220k" H 5830 2645 50  0000 R CNN
F 2 "Connector:FanPinHeader_1x03_P2.54mm_Vertical" H 5900 2600 50  0001 C CNN
F 3 "~" H 5900 2600 50  0001 C CNN
	1    5900 2600
	-1   0    0    1   
$EndComp
$Comp
L Device:R R9
U 1 1 5DC5D87F
P 5900 3000
F 0 "R9" H 5970 3046 50  0000 L CNN
F 1 "30k" H 5970 2955 50  0000 L CNN
F 2 "Resistor_THT:R_Axial_DIN0207_L6.3mm_D2.5mm_P10.16mm_Horizontal" V 5830 3000 50  0001 C CNN
F 3 "~" H 5900 3000 50  0001 C CNN
	1    5900 3000
	1    0    0    -1  
$EndComp
$Comp
L Device:R R8
U 1 1 5DC5CF1F
P 5900 2200
F 0 "R8" H 5970 2246 50  0000 L CNN
F 1 "10k" H 5970 2155 50  0000 L CNN
F 2 "Resistor_THT:R_Axial_DIN0207_L6.3mm_D2.5mm_P10.16mm_Horizontal" V 5830 2200 50  0001 C CNN
F 3 "~" H 5900 2200 50  0001 C CNN
	1    5900 2200
	1    0    0    -1  
$EndComp
Wire Wire Line
	5000 2600 5750 2600
Connection ~ 5000 2600
Wire Wire Line
	5900 1900 5900 2050
Connection ~ 5900 1900
Wire Wire Line
	5900 3150 5900 3850
Connection ~ 5900 3850
Wire Wire Line
	5400 1900 5900 1900
Wire Wire Line
	4550 3850 5900 3850
Wire Wire Line
	5900 1100 6250 1100
Wire Wire Line
	2700 2550 2700 3850
Connection ~ 2700 3850
Wire Wire Line
	2700 3850 2950 3850
Wire Wire Line
	2950 2550 2950 3850
Connection ~ 2950 3850
Wire Wire Line
	2950 3850 3200 3850
Wire Wire Line
	1550 2300 1500 2300
Wire Wire Line
	1750 2300 1850 2300
Wire Wire Line
	1850 2300 1850 2050
Wire Wire Line
	1850 2050 2400 2050
Wire Wire Line
	2400 2050 2400 2400
$Comp
L Device:Q_PNP_BCE Q1
U 1 1 5DD05099
P 3550 2300
F 0 "Q1" H 3750 2200 50  0000 L CNN
F 1 "2SA1413" H 3750 2300 50  0000 L CNN
F 2 "Package_TO_SOT_THT:TO-220-3_Vertical" H 3750 2400 50  0001 C CNN
F 3 "~" H 3550 2300 50  0001 C CNN
	1    3550 2300
	1    0    0    1   
$EndComp
$Comp
L Device:R R1
U 1 1 5DD08B57
P 3650 1800
F 0 "R1" V 3650 1750 50  0000 L CNN
F 1 "910" V 3550 1730 50  0000 L CNN
F 2 "Resistor_THT:R_Axial_DIN0207_L6.3mm_D2.5mm_P10.16mm_Horizontal" V 3580 1800 50  0001 C CNN
F 3 "~" H 3650 1800 50  0001 C CNN
	1    3650 1800
	1    0    0    -1  
$EndComp
$Comp
L Reference_Voltage:TL431LP U1
U 1 1 5DD093A3
P 3200 1500
F 0 "U1" V 3500 1450 50  0000 R CNN
F 1 "TL431LP" H 3350 1400 50  0000 R CNN
F 2 "Package_TO_SOT_THT:TO-92_Inline" H 3200 1350 50  0001 C CIN
F 3 "http://www.ti.com/lit/ds/symlink/tl431.pdf" H 3200 1500 50  0001 C CIN
	1    3200 1500
	0    1    -1   0   
$EndComp
$Comp
L Device:CP C8
U 1 1 5DD18BB0
P 3450 1500
F 0 "C8" H 3400 1800 50  0000 L CNN
F 1 "470uF/10v" H 3250 1700 50  0000 L CNN
F 2 "Capacitor_THT:CP_Radial_D6.3mm_P2.50mm" H 3488 1350 50  0001 C CNN
F 3 "~" H 3450 1500 50  0001 C CNN
	1    3450 1500
	1    0    0    -1  
$EndComp
$Comp
L Device:R R3
U 1 1 5DD31EDE
P 4200 2600
F 0 "R3" V 4100 2600 50  0000 C CNN
F 1 "1k" V 4300 2600 50  0000 C CNN
F 2 "Resistor_THT:R_Axial_DIN0207_L6.3mm_D2.5mm_P10.16mm_Horizontal" V 4130 2600 50  0001 C CNN
F 3 "~" H 4200 2600 50  0001 C CNN
	1    4200 2600
	0    1    1    0   
$EndComp
Wire Wire Line
	4350 2600 4550 2600
$Comp
L Device:R R2
U 1 1 5DD3C6CF
P 3200 3000
F 0 "R2" H 3250 3100 50  0000 L CNN
F 1 "100k/2W" H 3250 3000 50  0000 L CNN
F 2 "Resistor_THT:R_Axial_DIN0414_L11.9mm_D4.5mm_P15.24mm_Horizontal" V 3130 3000 50  0001 C CNN
F 3 "~" H 3200 3000 50  0001 C CNN
	1    3200 3000
	1    0    0    -1  
$EndComp
Wire Wire Line
	3200 3150 3200 3850
Connection ~ 3200 3850
Wire Wire Line
	3200 3850 4350 3850
Wire Wire Line
	3650 2500 3650 2600
Wire Wire Line
	3200 1600 3200 1650
Wire Wire Line
	3200 1400 3200 1350
Connection ~ 3200 1100
Wire Wire Line
	3200 1100 3650 1100
Wire Wire Line
	3200 1350 3300 1350
Wire Wire Line
	3300 1350 3300 1500
Connection ~ 3200 1350
Wire Wire Line
	3200 1350 3200 1100
Wire Wire Line
	3300 1350 3450 1350
Connection ~ 3300 1350
Wire Wire Line
	3450 1650 3200 1650
Connection ~ 3200 1650
Wire Wire Line
	3200 1650 3200 2300
Wire Wire Line
	3350 2300 3200 2300
Connection ~ 3200 2300
Wire Wire Line
	3200 2300 3200 2850
Wire Wire Line
	3650 1650 3650 1100
Connection ~ 3650 1100
Wire Wire Line
	3650 1100 4450 1100
Wire Wire Line
	3650 1950 3650 2100
Text Notes 3780 1870 1    50   ~ 0
1v9
Wire Bus Line
	3745 1725 3745 1645
Wire Bus Line
	3745 1645 3670 1645
Wire Bus Line
	3745 1875 3745 1955
Wire Bus Line
	3745 1955 3670 1955
$Comp
L Device:R R4
U 1 1 5DC2A46B
P 4550 2300
F 0 "R4" H 4550 2450 50  0000 L CNN
F 1 "1k" V 4650 2255 50  0000 L CNN
F 2 "Resistor_THT:R_Axial_DIN0207_L6.3mm_D2.5mm_P10.16mm_Horizontal" V 4480 2300 50  0001 C CNN
F 3 "~" H 4550 2300 50  0001 C CNN
	1    4550 2300
	1    0    0    -1  
$EndComp
Text Notes 3200 2140 0    39   ~ 0
Ub=Uwe-2.5V
Wire Bus Line
	3600 2150 3300 2150
Wire Bus Line
	3300 2150 3200 2300
Text Notes 4250 1385 0    39   ~ 0
Uwy+3,5/6V
Wire Bus Line
	4600 1400 4700 1550
Wire Bus Line
	4250 1400 4600 1400
Text Notes 4140 2335 0    39   ~ 0
I=1,9V/R1
Text Notes 4145 2415 0    39   ~ 0
2mA
Text Notes 4345 3175 0    39   ~ 0
31,5V
Wire Bus Line
	4350 3185 4500 3185
Wire Bus Line
	4500 3185 4550 3250
Text Notes 5115 2480 0    39   ~ 0
32V
Wire Bus Line
	5225 2485 5100 2485
Wire Bus Line
	5100 2485 5000 2600
Text Notes 2775 990  0    39   ~ 0
Uwe (400V max)
Wire Bus Line
	2770 1010 2700 1100
Text Notes 5975 990  0    39   ~ 0
Uwy (+35V do 380V max)
Wire Bus Line
	5970 1010 5900 1100
Wire Bus Line
	2770 1010 3265 1010
Wire Bus Line
	5970 1010 6740 1010
Text Notes 5900 2450 0    39   ~ 0
(min)
Text Notes 5900 2810 0    39   ~ 0
(max)
Text Notes 5300 1215 0    39   ~ 0
R7=0,6V/Iwy(max)
Wire Notes Line
	6535 1125 7285 1125
Wire Notes Line
	7285 1125 7285 1870
Wire Notes Line
	7285 1870 6530 1870
Wire Notes Line
	6530 1870 6530 1130
Text Notes 6550 3795 0    39   ~ 0
Elementy dzielnika R8, RV1, R9,\ndobrać w taki sposób, aby prąd płynący\nprzez dzielnik zawierał się w przedziale\nod 0,4mA do 1,5mA.\n\nPrzybliżony przedział napięć w jakim możemy\nregulować napięcie wyjściowe potencjometrem RV1:\n\nUwy(min) = 32*[(RV1+R8+R9)/R9+RV1]\nUwy(max) = 32*[(RV1+R8+R9)/R9]\n\nWszystkie rezystory prócz R2 metalizowane\n0,6W 1% typu RM0207S
Wire Notes Line
	6535 2950 8125 2950
Wire Notes Line
	8125 2950 8125 3805
Wire Notes Line
	8125 3805 6535 3805
Wire Notes Line
	6535 3805 6535 2950
Text Notes 6550 1850 0    39   ~ 0
Q4:\n\nBUZ90\nIRF730\nIRFBC30 dla I <= 0,1A\n\nIRF740\nIRFBC40 dla I <= 0,2A\n\nIRFP450\nIRFPC50 dla I <= 0,5A
Wire Wire Line
	6500 3850 8180 3850
Wire Wire Line
	8180 1200 8180 1300
$Comp
L Transistor_BJT:BC548 Q3
U 1 1 5DBCB4FC
P 5200 1800
F 0 "Q3" V 5100 1900 50  0000 C CNN
F 1 "BC548B" V 5400 1800 50  0000 C CNN
F 2 "Package_TO_SOT_THT:TO-92_Inline" H 5400 1725 50  0001 L CIN
F 3 "http://www.fairchildsemi.com/ds/BC/BC547.pdf" H 5200 1800 50  0001 L CNN
	1    5200 1800
	0    -1   1    0   
$EndComp
Wire Wire Line
	4950 1100 5200 1100
Connection ~ 5300 1100
Wire Wire Line
	5200 1200 5200 1100
Connection ~ 5200 1100
Wire Wire Line
	5200 1100 5300 1100
Wire Wire Line
	4950 1550 4950 1900
Wire Wire Line
	4950 1900 5000 1900
Connection ~ 4950 1550
Wire Wire Line
	3650 2600 3700 2600
Wire Wire Line
	4000 2600 4050 2600
$Comp
L Device:LED D1
U 1 1 5DD35E76
P 3850 2600
F 0 "D1" H 3850 2500 50  0000 C CNN
F 1 "GREEN" H 3850 2700 50  0000 C CNN
F 2 "LED_THT:LED_D5.0mm" H 3850 2600 50  0001 C CNN
F 3 "~" H 3850 2600 50  0001 C CNN
	1    3850 2600
	-1   0    0    1   
$EndComp
NoConn ~ 4450 2600
Wire Bus Line
	4150 2350 4450 2350
Wire Bus Line
	4450 2350 4450 2600
Wire Wire Line
	4550 2450 4550 2600
$Comp
L power:GND #PWR0102
U 1 1 5DEBD902
P 8180 3850
F 0 "#PWR0102" H 8180 3600 50  0001 C CNN
F 1 "GND" H 8185 3677 50  0000 C CNN
F 2 "" H 8180 3850 50  0001 C CNN
F 3 "" H 8180 3850 50  0001 C CNN
	1    8180 3850
	1    0    0    -1  
$EndComp
$Comp
L power:GND #PWR0101
U 1 1 5DEBB37B
P 8180 1300
F 0 "#PWR0101" H 8180 1050 50  0001 C CNN
F 1 "GND" H 8185 1127 50  0000 C CNN
F 2 "" H 8180 1300 50  0001 C CNN
F 3 "" H 8180 1300 50  0001 C CNN
	1    8180 1300
	1    0    0    -1  
$EndComp
$Comp
L power:PWR_FLAG #FLG0101
U 1 1 5DBD03BA
P 720 700
F 0 "#FLG0101" H 720 775 50  0001 C CNN
F 1 "PWR_FLAG" H 720 873 50  0000 C CNN
F 2 "" H 720 700 50  0001 C CNN
F 3 "~" H 720 700 50  0001 C CNN
	1    720  700 
	1    0    0    -1  
$EndComp
$Comp
L power:GND #PWR0103
U 1 1 5DBD5667
P 720 850
F 0 "#PWR0103" H 720 600 50  0001 C CNN
F 1 "GND" H 725 677 50  0000 C CNN
F 2 "" H 720 850 50  0001 C CNN
F 3 "" H 720 850 50  0001 C CNN
	1    720  850 
	1    0    0    -1  
$EndComp
Wire Wire Line
	720  850  720  700 
Text Notes 3250 3100 0    39   ~ 0
(Typ: PR02)
$Comp
L Device:D_Bridge_+AA- D7
U 1 1 5DD1C787
P 2100 2400
F 0 "D7" V 2200 2450 50  0000 R CNN
F 1 "Bridge" V 2100 2500 50  0000 R CNN
F 2 "Diode_THT:Diode_Bridge_Vishay_GBU" H 2100 2400 50  0001 C CNN
F 3 "~" H 2100 2400 50  0001 C CNN
	1    2100 2400
	0    1    -1   0   
$EndComp
Wire Wire Line
	6500 1100 8180 1100
$Comp
L Connector:Conn_01x02_Male J2
U 1 1 5DEB3586
P 8380 1200
F 0 "J2" H 8425 1260 50  0000 R CNN
F 1 "DC_OUT" H 8425 1150 50  0000 R CNN
F 2 "TerminalBlock:TerminalBlock_Altech_AK300-2_P5.00mm" H 8380 1200 50  0001 C CNN
F 3 "~" H 8380 1200 50  0001 C CNN
	1    8380 1200
	-1   0    0    1   
$EndComp
$Comp
L Mechanical:MountingHole H1
U 1 1 5DC1DB21
P 990 620
F 0 "H1" H 1090 666 50  0000 L CNN
F 1 "Hole" H 1090 575 50  0000 L CNN
F 2 "MountingHole:MountingHole_3.2mm_M3" H 990 620 50  0001 C CNN
F 3 "~" H 990 620 50  0001 C CNN
	1    990  620 
	1    0    0    -1  
$EndComp
$Comp
L Mechanical:MountingHole H2
U 1 1 5DC1F832
P 1350 610
F 0 "H2" H 1450 656 50  0000 L CNN
F 1 "Hole" H 1450 565 50  0000 L CNN
F 2 "MountingHole:MountingHole_3.2mm_M3" H 1350 610 50  0001 C CNN
F 3 "~" H 1350 610 50  0001 C CNN
	1    1350 610 
	1    0    0    -1  
$EndComp
$Comp
L Mechanical:MountingHole H3
U 1 1 5DC231E8
P 1740 620
F 0 "H3" H 1840 666 50  0000 L CNN
F 1 "Hole" H 1840 575 50  0000 L CNN
F 2 "MountingHole:MountingHole_3.2mm_M3" H 1740 620 50  0001 C CNN
F 3 "~" H 1740 620 50  0001 C CNN
	1    1740 620 
	1    0    0    -1  
$EndComp
$Comp
L Mechanical:MountingHole H4
U 1 1 5DC26B5B
P 2130 620
F 0 "H4" H 2230 666 50  0000 L CNN
F 1 "Hole" H 2230 575 50  0000 L CNN
F 2 "MountingHole:MountingHole_3.2mm_M3" H 2130 620 50  0001 C CNN
F 3 "~" H 2130 620 50  0001 C CNN
	1    2130 620 
	1    0    0    -1  
$EndComp
$Comp
L Connector:Conn_01x01_Male J3
U 1 1 5DC485F5
P 4030 3250
F 0 "J3" H 4030 3320 50  0000 C CNN
F 1 "KC531B" H 3880 3250 50  0000 C CNN
F 2 "Connector_Wire:SolderWirePad_1x01_Drill0.8mm" H 4030 3250 50  0001 C CNN
F 3 "~" H 4030 3250 50  0001 C CNN
	1    4030 3250
	1    0    0    -1  
$EndComp
Wire Wire Line
	4550 3250 4350 3250
Wire Wire Line
	4230 3250 4350 3250
Connection ~ 4350 3250
$EndSCHEMATC
